{
	"role_name" : "pm",
	"activationStatus" : true,
	"features" : {
		"/info" : {
			"GET" : {
				"command" : "get_info",
				"enabled" : true
			}
		},
		"/v1/info" : {
			"GET" : {
				"command" : "get_info",
				"enabled" : true
			}
		},
		"/auth" : {
			"POST" : {
				"request_type" : "sync",
				"command" : "login",
				"enabled" : true
			},
			"DELETE" : {
				"command" : "logout",
				"enabled" : true
			}
		},
		"/v1/auth" : {
			"POST" : {
				"request_type" : "sync",
				"command" : "login",
				"enabled" : true
			},
			"DELETE" : {
				"command" : "logout",
				"enabled" : true
			}
		},
		"/projects/manage" : {
			"GET" : {
				"command" : "get_projects",
				"enabled" : true
			},
			"POST" : {
				"request_type" : "sync",
				"command" : "create_project",
				"enabled" : true
			},
			"PUT" : {
				"request_type" : "sync",
				"command" : "modify_project",
				"enabled" : true
			},
			"DELETE" : {
				"command" : "deactivate_project",
				"enabled" : false
			}
		},
		"/v1/projects/manage" : {
			"GET" : {
				"command" : "get_projects",
				"enabled" : true
			},
			"POST" : {
				"request_type" : "sync",
				"command" : "create_project",
				"enabled" : true
			},
			"PUT" : {
				"request_type" : "sync",
				"command" : "modify_project",
				"enabled" : true
			},
			"DELETE" : {
				"command" : "deactivate_project",
				"enabled" : false
			}
		},
		"/project/cleanup" : {
			"POST" : {
				"command" : "cleanup_project",
				"enabled" : false
			}
		},
		"/v1/project/cleanup" : {
			"POST" : {
				"command" : "cleanup_project",
				"enabled" : false
			}
		},
		"/build/details" : {
			"GET" : {
				"command" : "build_details",
				"enabled" : true
			}
		},
		"/v1/build/details" : {
			"GET" : {
				"command" : "build_details",
				"enabled" : true
			}
		},
		"/build/list" : {
			"GET" : {
				"command" : "build_list",
				"enabled" : true
			}
		},
		"/v1/build/list" : {
			"GET" : {
				"command" : "build_list",
				"enabled" : true
			}
		},
		"/build/history" : {
			"GET" : {
				"command" : "build_history",
				"enabled" : true
			}
		},
		"/v1/build/history" : {
			"GET" : {
				"command" : "build_history",
				"enabled" : true
			}
		},
		"/experiment/details" : {
			"GET" : {
				"command" : "experiment_run_details",
				"enabled" : true
			}
		},
		"/v1/experiment/details" : {
			"GET" : {
				"command" : "experiment_run_details",
				"enabled" : true
			}
		},
		"/experiment/list" : {
			"GET" : {
				"command" : "experiment_list",
				"enabled" : true
			}
		},
		"/v1/experiment/list" : {
			"GET" : {
				"command" : "experiment_list",
				"enabled" : true
			}
		},
		"/experiment/history" : {
			"GET" : {
				"command" : "experiment_history",
				"enabled" : true
			}
		},
		"/v1/experiment/history" : {
			"GET" : {
				"command" : "experiment_history",
				"enabled" : true
			}
		},
		"/projects/build" : {
			"GET" : {
				"command" : "get_build_version",
				"enabled" : true
			},
			"POST" : {
				"request_type" : "sync",
				"command" : "build_project",
				"enabled" : true
			}
		},
		"/v1/projects/build" : {
			"GET" : {
				"command" : "get_build_version",
				"enabled" : true
			},
			"POST" : {
				"request_type" : "sync",
				"command" : "build_project",
				"enabled" : true
			}
		},
		"/projects/deploy" : {
			"GET" : {
				"command" : "get_pipeline_versions",
				"enabled" : true
			},
			"POST" : {
				"request_type" : "sync",
				"command" : "deploy_project",
				"enabled" : true
			},
			"DELETE" : {
				"request_type" : "sync",
				"command" : "undeploy_project",
				"enabled" : true
			}
		},
		"/v1/projects/deploy" : {
			"GET" : {
				"command" : "get_pipeline_versions",
				"enabled" : true
			},
			"POST" : {
				"request_type" : "sync",
				"command" : "deploy_project",
				"enabled" : true
			},
			"DELETE" : {
				"request_type" : "sync",
				"command" : "undeploy_project",
				"enabled" : true
			}
		},
		"/experiments/start" : {
			"POST" : {
				"command" : "start_experiment",
				"enabled" : true
			}
		},
		"/v1/experiments/start" : {
			"POST" : {
				"command" : "start_experiment",
				"enabled" : true
			}
		},
		"/experiments/manage" : {
			"GET" : {
				"command" : "compare_experiments",
				"enabled" : true
			}
		},
		"/v1/experiments/manage" : {
			"GET" : {
				"command" : "compare_experiments",
				"enabled" : true
			}
		},
		"/experiment/control" : {
			"POST" : {
				"command" : "pause_experiment",
				"enabled" : true
			},
			"PUT" : {
				"command" : "restart_experiment",
				"enabled" : true
			},
			"DELETE" : {
				"command" : "terminate_experiment",
				"enabled" : true
			}
		},
		"/v1/experiment/control" : {
			"POST" : {
				"command" : "pause_experiment",
				"enabled" : true
			},
			"PUT" : {
				"command" : "restart_experiment",
				"enabled" : true
			},
			"DELETE" : {
				"command" : "terminate_experiment",
				"enabled" : true
			}
		},
		"/experiment/parameters" : {
			"GET" : {
				"command" : "get_experiment_parameters",
				"enabled" : true
			},
			"POST" : {
				"command" : "store_experiment_parameters",
				"enabled" : true
			}
		},
		"/v1/experiment/parameters" : {
			"GET" : {
				"command" : "get_experiment_parameters",
				"enabled" : true
			},
			"POST" : {
				"command" : "store_experiment_parameters",
				"enabled" : true
			}
		},
		"/versioning/auth" : {
			"GET" : {
				"command" : "versioning_auth",
				"enabled" : true
			}
		},
		"/v1/versioning/auth" : {
			"GET" : {
				"command" : "versioning_auth",
				"enabled" : true
			}
		},
		"/repo/create" : {
			"POST" : {
				"command" : "create_repo",
				"enabled" : true
			}
		},
		"/v1/repo/create" : {
			"POST" : {
				"command" : "create_repo",
				"enabled" : true
			}
		},
		"/model/list_branches" : {
			"GET" : {
				"command" : "list_branches",
				"enabled" : true
			}
		},
		"/v1/model/list_branches" : {
			"GET" : {
				"command" : "list_branches",
				"enabled" : true
			}
		},
		"/model/list_commits" : {
			"GET" : {
				"command" : "list_commits",
				"enabled" : true
			}
		},
		"/v1/model/list_commits" : {
			"GET" : {
				"command" : "list_commits",
				"enabled" : true
			}
		},
		"/model/list_dataset" : {
			"GET" : {
				"command" : "list_datasets",
				"enabled" : true
			}
		},
		"/v1/model/list_dataset" : {
			"GET" : {
				"command" : "list_datasets",
				"enabled" : true
			}
		},
		"/data/list_repos" : {
			"GET" : {
				"command" : "list_repos",
				"enabled" : true
			}
		},
		"/v1/data/list_repos" : {
			"GET" : {
				"command" : "list_repos",
				"enabled" : true
			}
		},
		"/data/list_branches" : {
			"GET" : {
				"command" : "list_branches",
				"enabled" : true
			}
		},
		"/v1/data/list_branches" : {
			"GET" : {
				"command" : "list_branches",
				"enabled" : true
			}
		},
		"/data/list_commits" : {
			"GET" : {
				"command" : "list_commits",
				"enabled" : true
			}
		},
		"/v1/data/list_commits" : {
			"GET" : {
				"command" : "list_commits",
				"enabled" : true
			}
		},
		"/data/list_dataset" : {
			"GET" : {
				"command" : "list_datasets",
				"enabled" : true
			}
		},
		"/v1/data/list_dataset" : {
			"GET" : {
				"command" : "list_datasets",
				"enabled" : true
			}
		},
		"/data/create_branch" : {
			"POST" : {
				"command" : "create_branch",
				"enabled" : true
			}
		},
		"/v1/data/create_branch" : {
			"POST" : {
				"command" : "create_branch",
				"enabled" : true
			}
		},
		"/data/pull_datasets" : {
			"GET" : {
				"command" : "pull_dataset",
				"enabled" : true
			}
		},
		"/v1/data/pull_datasets" : {
			"GET" : {
				"command" : "pull_dataset",
				"enabled" : true
			}
		},
		"/data/push_datasets" : {
			"POST" : {
				"request_type" : "sync",
				"command" : "push_dataset",
				"enabled" : true
			}
		},
		"/v1/data/push_datasets" : {
			"POST" : {
				"request_type" : "sync",
				"command" : "push_dataset",
				"enabled" : true
			}
		},
		"/data/delete_branch" : {
			"GET" : {
				"command" : "delete_branch",
				"enabled" : true
			}
		},
		"/v1/data/delete_branch" : {
			"GET" : {
				"command" : "delete_branch",
				"enabled" : true
			}
		},
		"/metrics" : {
			"GET" : {
				"command" : "get_metrics",
				"enabled" : true
			}
		},
		"/v1/metrics" : {
			"GET" : {
				"command" : "get_metrics",
				"enabled" : true
			}
		},
		"/clusters" : {
			"POST" : {
				"request_type" : "sync",
				"command" : "register_cluster",
				"enabled" : false
			},
			"GET" : {
				"command" : "get_cluster",
				"enabled" : false
			},
			"DELETE" : {
				"command" : "deactivate_cluster",
				"enabled" : false
			}
		},
		"/v1/clusters" : {
			"POST" : {
				"request_type" : "sync",
				"command" : "register_cluster",
				"enabled" : false
			},
			"GET" : {
				"command" : "get_cluster",
				"enabled" : false
			},
			"DELETE" : {
				"command" : "deactivate_cluster",
				"enabled" : false
			}
		},
		"/assign_node" : {
			"PUT" : {
				"command" : "assign_node",
				"enabled" : false
			}
		},
		"/v1/assign_node" : {
			"PUT" : {
				"command" : "assign_node",
				"enabled" : false
			}
		},
		"/nodes" : {
			"GET" : {
				"command" : "get_nodes",
				"enabled" : false
			},
			"POST" : {
				"request_type" : "sync",
				"command" : "register_node",
				"enabled" : false
			},
			"PUT" : {
				"request_type" : "sync",
				"command" : "provision_node",
				"enabled" : false
			},
			"DELETE" : {
				"command" : "deactivate_node",
				"enabled" : false
			}
		},
		"/v1/nodes" : {
			"GET" : {
				"command" : "get_nodes",
				"enabled" : false
			},
			"POST" : {
				"request_type" : "sync",
				"command" : "register_node",
				"enabled" : false
			},
			"PUT" : {
				"request_type" : "sync",
				"command" : "provision_node",
				"enabled" : false
			},
			"DELETE" : {
				"command" : "deactivate_node",
				"enabled" : false
			}
		},
		"/update_xpresso" : {
			"GET" : {
				"command" : "update_xpresso",
				"enabled" : true
			}
		},
		"/v1/update_xpresso" : {
			"GET" : {
				"command" : "update_xpresso",
				"enabled" : true
			}
		},
		"/version" : {
			"GET" : {
				"command" : "get_version",
				"enabled" : true
			}
		},
		"/v1/version" : {
			"GET" : {
				"command" : "get_version",
				"enabled" : true
			}
		},
		"/exp/api" : {
			"GET" : {
				"command" : "find_experiment",
				"enabled" : true
			}
		},
		"/v1/exp/api" : {
			"GET" : {
				"command" : "find_experiment",
				"enabled" : true
			}
		},
		"/run/decode" : {
			"GET" : {
				"command" : "decode_run",
				"enabled" : true
			}
		},
		"/v1/run/decode" : {
			"GET" : {
				"command" : "decode_run",
				"enabled" : true
			}
		},
		"/run/api" : {
			"GET" : {
				"command" : "get_run_info",
				"enabled" : true
			},
			"PUT" : {
				"command" : "update_run_info",
				"enabled" : true
			}
		},
		"/v1/run/api" : {
			"GET" : {
				"command" : "get_run_info",
				"enabled" : true
			},
			"PUT" : {
				"command" : "update_run_info",
				"enabled" : true
			}
		},
		"/project/api" : {
			"GET" : {
				"command" : "find_project",
				"enabled" : true
			}
		},
		"/v1/project/api" : {
			"GET" : {
				"command" : "find_project",
				"enabled" : true
			}
		},
		"/user/pwd" : {
			"PUT" : {
				"command" : "update_password",
				"enabled" : true
			}
		},
		"/v1/user/pwd" : {
			"PUT" : {
				"command" : "update_password",
				"enabled" : true
			}
		},
		"/users/details" : {
			"GET" : {
				"command" : "get_user_details",
				"enabled" : true
			}
		},
		"/v1/users/details" : {
			"GET" : {
				"command" : "get_user_details",
				"enabled" : true
			}
		},
		"/users" : {
			"POST" : {
				"command" : "register_user",
				"enabled" : false
			},
			"GET" : {
				"command" : "get_users",
				"enabled" : true
			},
			"PUT" : {
				"command" : "modify_user",
				"enabled" : true
			},
			"DELETE" : {
				"command" : "deactivate_user",
				"enabled" : true
			}
		},
		"/v1/users" : {
			"POST" : {
				"command" : "register_user",
				"enabled" : false
			},
			"GET" : {
				"command" : "get_users",
				"enabled" : true
			},
			"PUT" : {
				"command" : "modify_user",
				"enabled" : true
			},
			"DELETE" : {
				"command" : "deactivate_user",
				"enabled" : true
			}
		},
		"/get_request_status" : {
			"GET" : {
				"command" : "get_request_status",
				"enabled" : true
			}
		},
		"/v1/get_request_status" : {
			"GET" : {
				"command" : "get_request_status",
				"enabled" : true
			}
		},
		"/submit/notebook" : {
			"POST" : {
				"command" : "submit_notebook",
				"enabled" : true
			}
		},
		"/v1/submit/notebook" : {
			"POST" : {
				"command" : "submit_notebook",
				"enabled" : true
			}
		},
		"/coderepo/branch" : {
			"GET" : {
				"command" : "coderepo_branch",
				"enabled" : true
			}
		},
		"/v1/coderepo/branch" : {
			"GET" : {
				"command" : "coderepo_branch",
				"enabled" : true
			}
		},
		"/pipelines/list" : {
			"POST" : {
				"command" : "pipelines_list",
				"enabled" : true
			}
		},
		"/v1/pipelines/list" : {
			"POST" : {
				"command" : "pipelines_list",
				"enabled" : true
			}
		},
		"/schedules/manage" : {
			"DELETE" : {
				"command" : "stop_schedule",
				"enabled" : true
			},
			"PUT" : {
				"command" : "restart_schedule",
				"enabled" : true
			}
		},
		"/v1/schedules/manage" : {
			"DELETE" : {
				"command" : "stop_schedule",
				"enabled" : true
			},
			"PUT" : {
				"command" : "restart_schedule",
				"enabled" : true
			}
		},
		"/schedules" : {
			"DELETE" : {
				"command" : "delete_schedule",
				"enabled" : true
			},
			"POST" : {
				"command" : "create_schedule",
				"enabled" : true
			},
			"GET" : {
				"command" : "get_schedule",
				"enabled" : true
			},
			"PUT" : {
				"command" : "modify_schedule",
				"enabled" : true
			}
		},
		"/v1/schedules" : {
			"DELETE" : {
				"command" : "delete_schedule",
				"enabled" : true
			},
			"POST" : {
				"command" : "create_schedule",
				"enabled" : true
			},
			"GET" : {
				"command" : "get_schedule",
				"enabled" : true
			},
			"PUT" : {
				"command" : "modify_schedule",
				"enabled" : true
			}
		},
		"/project_metrics" : {
			"GET" : {
				"command" : "get_kpis",
				"enabled" : true
			}
		},
		"/v1/project_metrics" : {
			"GET" : {
				"command" : "get_kpis",
				"enabled" : true
			}
		},
		"/project_plots" : {
			"GET" : {
				"command" : "get_plots",
				"enabled" : true
			}
		},
		"/v1/project_plots" : {
			"GET" : {
				"command" : "get_plots",
				"enabled" : true
			}
		},
		"/project/file_explorer/" : {
			"GET" : {
				"command" : "fetch_project_files",
				"enabled" : true
			},
			"DELETE" : {
				"command" : "delete_files",
				"enabled" : true
			}
		},
		"/v1/project/file_explorer/" : {
			"GET" : {
				"command" : "fetch_project_files",
				"enabled" : true
			},
			"DELETE" : {
				"command" : "delete_files",
				"enabled" : true
			}
		},
		"/project/file_upload" : {
			"POST" : {
				"command" : "upload_files",
				"enabled" : true
			}
		},
		"/v1/project/file_upload" : {
			"POST" : {
				"command" : "upload_files",
				"enabled" : true
			}
		},
		"/project/file_download" : {
			"GET" : {
				"command" : "download_files",
				"enabled" : true
			}
		},
		"/v1/project/file_download" : {
			"GET" : {
				"command" : "download_files",
				"enabled" : true
			}
		},
		"/project/create_folder" : {
			"POST" : {
				"command" : "create_folder",
				"enabled" : true
			}
		},
		"/v1/project/create_folder" : {
			"POST" : {
				"command" : "create_folder",
				"enabled" : true
			}
		},
		"/report/error" : {
			"POST" : {
				"command" : "report_error",
				"enabled" : true
			}
		},
		"/v1/report/error" : {
			"POST" : {
				"command" : "report_error",
				"enabled" : true
			}
		},
		"/dv_branch/api" : {
			"GET" : {
				"command" : "dv_db_get_branch",
				"enabled" : true
			},
			"DELETE" : {
				"command" : "dv_db_delete_branch",
				"enabled" : true
			},
			"PUT" : {
				"command" : "dv_db_update_branch",
				"enabled" : true
			},
			"POST" : {
				"command" : "dv_db_create_branch",
				"enabled" : true
			}
		},
		"/v1/dv_branch/api" : {
			"GET" : {
				"command" : "dv_db_get_branch",
				"enabled" : true
			},
			"DELETE" : {
				"command" : "dv_db_delete_branch",
				"enabled" : true
			},
			"PUT" : {
				"command" : "dv_db_update_branch",
				"enabled" : true
			},
			"POST" : {
				"command" : "dv_db_create_branch",
				"enabled" : true
			}
		},
		"/ssl_cert/presto" : {
			"GET" : {
				"command" : "ssl_cert_presto",
				"enabled" : false
			}
		},
		"/v1/ssl_cert/presto" : {
			"GET" : {
				"command" : "ssl_cert_presto",
				"enabled" : false
			}
		},
		"/deploy/details" : {
			"GET" : {
				"command" : "component_deployment_details",
				"enabled" : true
			}
		},
		"/v1/deploy/details" : {
			"GET" : {
				"command" : "component_deployment_details",
				"enabled" : true
			}
		},
		"/deploy/logs" : {
			"GET" : {
				"command" : "deployed_component_log",
				"enabled" : true
			}
		},
		"/v1/deploy/logs" : {
			"GET" : {
				"command" : "deployed_component_log",
				"enabled" : true
			}
		},
		"/deploy/history" : {
			"GET" : {
				"command" : "component_deployment_history",
				"enabled" : true
			}
		},
		"/v1/deploy/history" : {
			"GET" : {
				"command" : "component_deployment_history",
				"enabled" : true
			}
		},
		"/deploy/list" : {
			"GET" : {
				"command" : "list_project_deployment",
				"enabled" : true
			}
		},
		"/v1/deploy/list" : {
			"GET" : {
				"command" : "list_project_deployment",
				"enabled" : true
			}
		},
		"/base_images" : {
			"GET" : {
				"command" : "get_image_info",
				"enabled" : true
			},
			"POST" : {
				"command" : "add_new_image",
				"enabled" : true
			},
			"PUT" : {
				"command" : "update_image_info",
				"enabled" : true
			}
		},
		"/v1/base_images" : {
			"GET" : {
				"command" : "get_image_info",
				"enabled" : true
			},
			"POST" : {
				"command" : "add_new_image",
				"enabled" : true
			},
			"PUT" : {
				"command" : "update_image_info",
				"enabled" : true
			}
		},
		"/update/client_package" : {
			"PUT" : {
				"command" : "update_xpresso_package",
				"enabled" : true
			}
		},
		"/v1/update/client_package" : {
			"PUT" : {
				"command" : "update_xpresso_package",
				"enabled" : true
			}
		},
		"/user/forget_password" : {
			"POST" : {
				"command" : "forget_password",
				"enabled" : true
			}
		},
		"/v1/user/forget_password" : {
			"POST" : {
				"command" : "forget_password",
				"enabled" : true
			}
		},
		"/components/type" : {
			"GET" : {
				"command" : "get_component_type",
				"enabled" : true
			}
		},
		"/v1/components/type" : {
			"GET" : {
				"command" : "get_component_type",
				"enabled" : true
			}
		},
		"/marketplace" : {
			"GET" : {
				"command" : "get_marketplace_component",
				"enabled" : true
			},
			"PUT" : {
				"command" : "update_marketplace_component",
				"enabled" : true
			},
			"DELETE" : {
				"command" : "delete_marketplace_component",
				"enabled" : true
			},
			"POST" : {
				"command" : "create_marketplace_component",
				"enabled" : true
			}
		},
		"/v1/marketplace" : {
			"GET" : {
				"command" : "get_marketplace_component",
				"enabled" : true
			},
			"PUT" : {
				"command" : "update_marketplace_component",
				"enabled" : true
			},
			"DELETE" : {
				"command" : "delete_marketplace_component",
				"enabled" : true
			},
			"POST" : {
				"command" : "create_marketplace_component",
				"enabled" : true
			}
		},
		"/promote" : {
			"POST" : {
				"command" : "promote_deployment",
				"enabled" : true
			}
		},
		"/v1/promote" : {
			"POST" : {
				"command" : "promote_deployment",
				"enabled" : true
			}
		},
		"/handle_promotion" : {
			"POST" : {
				"command" : "handle_promotion",
				"enabled" : true
			}
		},
		"/v1/handle_promotion" : {
			"POST" : {
				"command" : "handle_promotion",
				"enabled" : true
			}
		},
		"/v2/model/list_branches" : {
			"GET" : {
				"command" : "v2_list_branches",
				"enabled" : true
			}
		},
		"/v2/model/list_dataset" : {
			"GET" : {
				"command" : "v2_list_datasets",
				"enabled" : true
			}
		},
		"/v2/data/list_branches" : {
			"GET" : {
				"command" : "v2_list_branches",
				"enabled" : true
			}
		},
		"/v2/data/list_dataset" : {
			"GET" : {
				"command" : "v2_list_datasets",
				"enabled" : true
			}
		},
		"/v2/project/file_explorer/" : {
			"GET" : {
				"command" : "v2_fetch_project_files",
				"enabled" : true
			}
		},
		"/v2/model/deploy" : {
			"POST" : {
				"request_type" : "sync",
				"command" : "deploy_model",
				"enabled" : true
			}
		},
		"/v2/model/deploy/details" : {
			"GET" : {
				"request_type" : "sync",
				"command" : "model_deployment_details",
				"enabled" : true
			}
		},
		"/v2/model/deploy/list" : {
			"GET" : {
				"request_type" : "sync",
				"command" : "list_model_deployments",
				"enabled" : true
			}
		},
		"/v2/projects/deploy" : {
			"POST" : {
				"request_type" : "sync",
				"command" : "deploy_project",
				"enabled" : true
			}
		},
		"/v2/deploy/list/ab" : {
			"GET" : {
				"command" : "list_ab_testing_deployments",
				"enabled" : true
			}
		},
		"/v2/deploy/details/ab" : {
			"GET" : {
				"command" : "ab_testing_deployment_details",
				"enabled" : true
			}
		},
		"/v2/report_metrics/api" : {
			"POST" : {
				"command" : "report_metrics",
				"enabled" : true
			}
		},
		"/v2/run_metrics/kpis" : {
			"GET" : {
				"command" : "run_metrics_kpis",
				"enabled" : true
			}
		},
		"/v2/run_metrics/time_series/plots" : {
			"GET" : {
				"command" : "run_metrics_time_series_plots",
				"enabled" : true
			}
		},
		"/v2/run_metrics/explain_model/plots" : {
			"GET" : {
				"command" : "run_metrics_explain_model_plots",
				"enabled" : true
			}
		},
		"/v2/activity" : {
			"GET" : {
				"command" : "get_activities",
				"enabled" : true
			}
		},
		"/v2/roles/create" : {
			"POST" : {
				"command" : "create_role",
				"enabled" : false
			}
		},
		"/v2/roles/modify" : {
			"POST" : {
				"command" : "modify_role",
				"enabled" : false
			}
		},
		"/v2/roles/deactivate" : {
			"POST" : {
				"command" : "deactivate_role",
				"enabled" : false
			}
		},
		"/v2/roles/get" : {
			"GET" : {
				"command" : "get_roles",
				"enabled" : false
			}
		},
		"/v2/roles/get_features" : {
			"GET" : {
				"command" : "get_features",
				"enabled" : false
			}
		},
		"/v2/roles/add" : {
			"POST" : {
				"command" : "add_role",
				"enabled" : false
			}
		}
	}
}
